<svg 
  xmlns="http://www.w3.org/2000/svg" 
  viewBox="0 0 132.3 91.3" 
  class="logo">
  <path fill="#211F35" d="M49.2 1.4H65v87.8s-31.5 1.6-35.1 1.6a28 28 0 0 1-21-9.4A33 33 0 0 1 0 57.9c0-9.7 2.9-17.6 8.6-23.8a27.4 27.4 0 0 1 40.6-.8z"></path> 
  <path fill="#fff" d="M31.8 39c-5 .1-9 1.8-12.3 5.4-3.2 3.5-4.8 8-4.8 13.4a19 19 0 0 0 5 13.6c3.4 3.5 7.5 5.3 12.4 5.3a18 18 0 0 0 7.4-1.3c1.6-.6 3.3-.8 4.9-.3l8.8 2.8s-3.3-6.7-3.9-9.7c-.2-1-.5-2-.5-3.3 0-2.4.4-5.7.4-8 0-5.7-1.4-9.3-4.8-12.7A16.7 16.7 0 0 0 31.8 39z"></path> 
  <g fill="#F83F28" class="logo-text">
  <path fill="#F83F28" d="M98 7h4.4l4.9-5.6c-1.9 0-3.6-.4-5.3-1z"></path> <path d="M87.5 1.4h5.6v30.9h-5.6v-2.4a9.1 9.1 0 0 1-6.9 3 9.9 9.9 0 0 1-7.4-3.4c-2.1-2.2-3.2-5-3.2-8.3 0-3.5 1-6.3 3.1-8.5a9.8 9.8 0 0 1 14.4-.2zm-5.8 13.2c-1.7 0-3.2.6-4.3 1.8a6.7 6.7 0 0 0-1.8 4.7c0 2 .6 3.5 1.8 4.8a5.6 5.6 0 0 0 4.3 1.8c1.8 0 3.2-.6 4.4-1.8a6.7 6.7 0 0 0 1.7-4.8c0-2-.6-3.5-1.7-4.7a6 6 0 0 0-4.4-1.8z"></path> 
  <path d="M97.3 9.8h5.6v22.5h-5.6z"></path> 
  <path d="M71.2 38.5h5.6v2.3c1.2-1 2.4-1.8 3.4-2.2 1-.4 2-.6 3.2-.6 2.2 0 4 .7 5.6 2.3 1.3 1.3 2 3.2 2 5.8v14.7h-5.6V51c0-2.6-.1-4.4-.3-5.3a3.4 3.4 0 0 0-3.5-2.7c-1.1 0-2 .4-2.9 1.2a6 6 0 0 0-1.7 3.1c-.2.7-.2 2.2-.2 4.6v8.9h-5.6z"></path> 
  <path d="M112 38.2h5.7v22.3H112v-2.3c-1.1 1-2.2 1.8-3.3 2.2a9.9 9.9 0 0 1-11-2.7c-2.1-2.2-3.2-5-3.2-8.2 0-3.5 1-6.3 3-8.5a9.7 9.7 0 0 1 14.5-.3v-2.5zm-5.8 4.6c-1.7 0-3.1.7-4.3 1.9a6.7 6.7 0 0 0-1.7 4.7c0 1.9.6 3.5 1.7 4.7a5.6 5.6 0 0 0 4.3 1.9c1.8 0 3.2-.6 4.4-1.8a6.7 6.7 0 0 0 1.7-4.9c0-1.9-.6-3.5-1.7-4.7a5.8 5.8 0 0 0-4.4-1.8z"></path> 
  <path d="M71.2 67h5.6v2.6c1-1 2-1.9 3.2-2.4 1.1-.5 2.4-.8 3.8-.8s2.6.4 3.7 1c1.1.7 2 1.7 2.7 3 1-1.3 2-2.3 3.3-3a9 9 0 0 1 4.2-1c1.6 0 3 .4 4.2 1.1 1.2.8 2 1.7 2.6 3 .5 1.1.8 3 .8 5.7v13h-5.6V78c0-2.6-.4-4.3-1-5.2-.6-.9-1.5-1.3-2.8-1.3-1 0-1.8.3-2.6.8a5 5 0 0 0-1.7 2.3c-.3 1-.5 2.5-.5 4.6v10h-5.6V78.6c0-2-.2-3.4-.5-4.4-.3-.9-.7-1.5-1.3-2a4.2 4.2 0 0 0-4.7.2c-.7.6-1.3 1.4-1.6 2.4-.4 1-.6 2.5-.6 4.7v10h-5.6V67z"></path> 
  <path d="M120.5 66.4a11.8 11.8 0 0 1 6 21.9 11.9 11.9 0 0 1-14.2-1.9c-2.2-2.3-3.4-5-3.4-8.3 0-3.4 1.3-6.3 3.8-8.6 2.3-2 4.9-3 7.8-3zm0 5.3c-1.7 0-3.1.6-4.3 1.8a6.3 6.3 0 0 0-1.7 4.6c0 2 .6 3.5 1.7 4.8a5.8 5.8 0 0 0 4.4 1.8c1.7 0 3.2-.6 4.3-1.9a6.5 6.5 0 0 0 1.8-4.7c0-1.9-.6-3.4-1.7-4.6a5.9 5.9 0 0 0-4.4-1.8z"></path>
  </g>
</svg>